{"regions":
 [
     ["east" , "East" ],
     ["eastmidlands" , "East Midlands" ],
     [ "London" , "London" ],
     [ "northeast" , "North East" ],
     [ "northernireland" , "Northern Ireland" ],
     [ "scotland" , "Scotland" ],
     [ "wales" , "Wales" ],
     [ "westmidlands" , "West Midlands" ],
     [ "yorkshire", "Yorkshire"]
 ],
 "mpcs":
 [
     ["gi", "Gastro-Intestinal"],
     ["pruritus", "Pruritus"],
     ["respiratory", "Respiratory"]
 ]
}

